<svg aria-hidden="true" focusable="false" data-prefix="far" data-icon="file-check" role="img"
     xmlns="http://www.w3.org/2000/svg" viewBox="0 0 384 512" class="svg-inline--fa fa-file-check fa-w-12 fa-9x">
    <path fill="#fff"
          d="M369.941 97.941l-83.882-83.882A48 48 0 0 0 252.118 0H48C21.49 0 0 21.49 0 48v416c0 26.51 21.49 48 48 48h288c26.51 0 48-21.49 48-48V131.882a48 48 0 0 0-14.059-33.941zM332.118 128H256V51.882L332.118 128zM48 464V48h160v104c0 13.255 10.745 24 24 24h104v288H48zm261.151-192.661L166.842 412.508c-4.705 4.667-12.303 4.637-16.971-.068l-75.091-75.7c-4.667-4.705-4.637-12.303.068-16.971l22.719-22.536c4.705-4.667 12.303-4.637 16.97.069l44.104 44.461 111.072-110.181c4.705-4.667 12.303-4.637 16.971.068l22.536 22.718c4.667 4.706 4.636 12.303-.069 16.971z"
          class=""></path>
</svg>
