<svg aria-hidden="true" focusable="false" data-prefix="far" data-icon="industry-alt" role="img"
     xmlns="http://www.w3.org/2000/svg" viewBox="0 0 512 512" class="svg-inline--fa fa-industry-alt fa-w-16 fa-9x">
    <path fill="#b4bcc8"
          d="M475.115 131.752L336 220.28V152c0-18.916-20.931-30.399-36.885-20.248L160 220.28V56c0-13.255-10.745-24-24-24H24C10.745 32 0 42.745 0 56v400c0 13.255 10.745 24 24 24h464c13.255 0 24-10.745 24-24V152c0-18.917-20.931-30.399-36.885-20.248zM464 432H48V80h64v184c0 18.916 20.931 30.399 36.885 20.248L288 195.72V264c0 18.915 20.931 30.399 36.885 20.248L464 195.72V432zm-60-48h-40c-6.627 0-12-5.373-12-12v-40c0-6.627 5.373-12 12-12h40c6.627 0 12 5.373 12 12v40c0 6.627-5.373 12-12 12zm-128 0h-40c-6.627 0-12-5.373-12-12v-40c0-6.627 5.373-12 12-12h40c6.627 0 12 5.373 12 12v40c0 6.627-5.373 12-12 12zm-128 0h-40c-6.627 0-12-5.373-12-12v-40c0-6.627 5.373-12 12-12h40c6.627 0 12 5.373 12 12v40c0 6.627-5.373 12-12 12z"
          class=""></path>
</svg>
