<svg aria-hidden="true" focusable="false" data-prefix="far" data-icon="badge-dollar" role="img"
     xmlns="http://www.w3.org/2000/svg" viewBox="0 0 512 512" class="svg-inline--fa fa-badge-dollar fa-w-16 fa-9x">
    <path fill="#b4bcc8"
          d="M286.41 239.72l-50.07-14.3a8.46 8.46 0 0 1-6.12-8.11c0-4.64 3.78-8.42 8.44-8.42h32.78c3.6 0 7.08.77 10.26 2.22 4.8 2.21 10.37 1.71 14.11-2.03l17.52-17.52c5.27-5.27 4.67-14.28-1.55-18.38-9.5-6.27-20.35-10.11-31.78-11.46V144c0-8.84-7.16-16-16-16h-16c-8.84 0-16 7.16-16 16v17.56c-30.29 3.62-53.37 30.98-49.32 63.05 2.9 22.95 20.66 41.31 42.91 47.67l50.07 14.3a8.46 8.46 0 0 1 6.12 8.11c0 4.64-3.78 8.42-8.44 8.42h-32.78c-3.6 0-7.08-.77-10.26-2.22-4.8-2.21-10.37-1.71-14.11 2.03l-17.52 17.52c-5.27 5.27-4.67 14.28 1.55 18.38 9.5 6.27 20.35 10.11 31.78 11.46V368c0 8.84 7.16 16 16 16h16c8.84 0 16-7.16 16-16v-17.56c30.29-3.62 53.37-30.98 49.32-63.05-2.9-22.95-20.66-41.31-42.91-47.67zM512 256c0-36.5-18.8-68.4-46.7-86.7 6.8-32.9-2.7-68.7-28.3-94.3-25.6-25.7-61.5-35.1-94.3-28.3C324.2 18.7 292.3 0 256 0s-68.3 18.7-86.7 46.7C136.4 39.9 100.6 49.4 75 75c-25.7 25.6-35.1 61.5-28.3 94.3C18.6 187.8 0 219.8 0 256c0 36.3 18.7 68.3 46.7 86.7-6.8 32.9 2.7 68.7 28.3 94.3 25.6 25.7 61.2 35.1 94.3 28.3 18.5 28.1 50.5 46.7 86.7 46.7 36.4 0 68.3-18.8 86.7-46.7 33.1 6.8 68.7-2.7 94.3-28.3 25.7-25.6 35.1-61.5 28.3-94.3 28.1-18.5 46.7-50.5 46.7-86.7zm-108.3 61.3c9.1 19.9 30.3 54.8-.7 85.8-28 28-55.3 14.5-85.8.7-7.7 20.6-17.3 60.2-61.2 60.2-45.3 0-54.7-42.8-61.2-60.2-21.1 9.6-54.9 30.2-85.9-.8-32-32-8.4-68.9-.7-85.8C87.6 309.5 48 299.9 48 256c0-45.3 42.8-54.7 60.3-61.3-9.1-19.9-30.3-54.8.7-85.8 32-32 68.9-8.4 85.8-.7C202.5 87.6 212.1 48 256 48c45.3 0 54.7 42.8 61.2 60.4 19.9-9.1 54.8-30.3 85.8.7 32 32 8.4 68.9.7 85.8 20.6 7.7 60.2 17.3 60.2 61.2 0 45.3-42.8 54.7-60.2 61.2z"
          class=""></path>
</svg>
