<svg aria-hidden="true" focusable="false" data-prefix="fas" data-icon="megaphone" role="img"
     xmlns="http://www.w3.org/2000/svg" viewBox="0 0 576 512" class="svg-inline--fa fa-megaphone fa-w-18 fa-9x">
    <path fill="#fff"
          d="M32 176c-17.67 0-32 14.33-32 32v96c0 17.67 14.33 32 32 32 11.38 0 20.9-6.28 26.57-15.22l106.99 32.3c-3.35 9.76-5.56 20.04-5.56 30.92 0 52.94 43.06 96 96 96 44.49 0 81.66-30.57 92.5-71.7L480 448V64L58.57 191.22C52.9 182.28 43.38 176 32 176zm179.29 190.88l91.47 27.61C297.95 415.92 278.85 432 256 432c-26.47 0-48-21.53-48-48 0-6.05 1.24-11.79 3.29-17.12zM560 32h-32c-8.84 0-16 7.16-16 16v416c0 8.84 7.16 16 16 16h32c8.84 0 16-7.16 16-16V48c0-8.84-7.16-16-16-16z"
          class=""></path>
</svg>
